[gd_scene load_steps=4 format=2]

[ext_resource path="res://FlameThrower-1.png" type="Texture" id=1]
[ext_resource path="res://Sprite.gd" type="Script" id=2]
[ext_resource path="res://FlameBullet.tscn" type="PackedScene" id=3]

[node name="Flame" type="Sprite"]
texture = ExtResource( 1 )
script = ExtResource( 2 )
bullet = ExtResource( 3 )

[node name="muzzle" type="Position2D" parent="."]
position = Vector2( 12.1292, 0 )

