[gd_resource type="TileSet" load_steps=2 format=2]

[ext_resource path="res://Dungeon_Tileset.png" type="Texture" id=1]

[resource]
0/name = "Sprite"
0/texture = ExtResource( 1 )
0/tex_offset = Vector2( 0, 0 )
0/modulate = Color( 1, 1, 1, 1 )
0/region = Rect2( 96, 16, 16, 16 )
0/tile_mode = 0
0/occluder_offset = Vector2( 8, 8 )
0/navigation_offset = Vector2( 8, 8 )
0/shapes = [  ]
0/z_index = 0

